// Jest Snapshot v1, https://goo.gl/fbAQLP

exports[`Level component renders correctly 1`] = `
<div
  class="slick-slider sc-bdnylx fwWIJW slick-initialized"
>
  
  <div
    class="slick-list"
  >
    <div
      class="slick-track"
      style="opacity: 1; transform: translate3d(0px, 0px, 0px);"
    >
      <div
        aria-hidden="false"
        class="slick-slide slick-active slick-current"
        data-index="0"
        style="outline: none; width: 0px;"
        tabindex="-1"
      >
        <div>
          <button
            class="sc-gtssRu dfZywf"
            style="width: 100%; display: inline-block;"
            tabindex="-1"
          >
            4
            X
            4
          </button>
        </div>
      </div>
      <div
        aria-hidden="false"
        class="slick-slide slick-active"
        data-index="1"
        style="outline: none; width: 0px;"
        tabindex="-1"
      >
        <div>
          <button
            class="sc-gtssRu cpzQFJ"
            style="width: 100%; display: inline-block;"
            tabindex="-1"
          >
            5
            X
            5
          </button>
        </div>
      </div>
    </div>
  </div>
  
  
</div>
`;
